{
  "name": "Log Out Button",
  "uuid": "LogOutButton@kyle.aims.ac.za",
  "url": "https://gitlab.com/paddatrapper/log-out-button-gnome-extension",
  "description": "Add log-out button to the action tray",
  "gettext-domain": "logoutbutton",
  "settings-schema": "org.gnome.shell.extensions.logoutbutton",
  "shell-version": [
    "3.10",
    "3.12",
    "3.14",
    "3.16",
    "3.18",
    "3.20",
    "3.22",
    "3.24",
    "3.26"
  ]
}
